#SimTypeStr,SimType,SideSize,Neighbours,Conditions,Result
GNaive1D.cu,10,2,1,56,0.0787325
GNaive1D.cu,10,3,2,702,0.101066
GNaive1D.cu,10,4,3,4032,0.157841
GNaive1D.cu,10,5,4,15500,0.230296
GNaive1D.cu,10,6,5,46440,0.362535
GNaive1D.cu,10,7,6,117306,0.548993
GNaive1D.cu,10,8,7,261632,0.796398
GNaive1D.cu,10,9,8,530712,1.11535
GNaive1D.cu,10,10,9,999000,1.52287
GNaive1D.cu,10,11,10,1.77023e+06,2.01675
GNaive1D.cu,10,12,11,2.98426e+06,2.61482
GNaive1D.cu,10,13,12,4.82461e+06,3.33419
GNaive1D.cu,10,14,13,7.52679e+06,4.16747
GNaive1D.cu,10,15,14,1.13872e+07,5.09155
GNaive1D.cu,10,16,15,1.67731e+07,6.15448
GNaive1D.cu,10,17,16,2.41327e+07,7.6879
GNaive1D.cu,10,18,17,3.40064e+07,9.17218
GNaive1D.cu,10,19,18,4.7039e+07,10.8217
GNaive1D.cu,10,20,19,6.3992e+07,12.7731
GNaive1D.cu,10,21,20,8.57569e+07,15.0965
GNaive1D.cu,10,22,21,1.13369e+08,19.3388
GNaive1D.cu,10,23,22,1.48024e+08,23.2568
GNaive1D.cu,10,24,23,1.91089e+08,26.6101
GNaive1D.cu,10,25,24,2.44125e+08,31.0192
GNaive1D.cu,10,26,25,3.08898e+08,35.1021
GNaive1D.cu,10,27,26,3.87401e+08,40.643
GNaive1D.cu,10,28,27,4.81868e+08,45.9543
GNaive1D.cu,10,29,28,5.94799e+08,52.0313
GNaive1D.cu,10,30,29,7.28973e+08,57.5311
GNaive1D.cu,10,31,30,8.87474e+08,64.6582
GNaive1D.cu,10,32,31,1.07371e+09,71.1957
GNaive1D.cu,10,33,32,1.29143e+09,163.355
GNaive1D.cu,10,34,33,1.54477e+09,179.324
GNaive1D.cu,10,35,34,1.83822e+09,195.603
GNaive1D.cu,10,36,35,2.17674e+09,213.103
GNaive1D.cu,10,37,36,2.56568e+09,233.844
GNaive1D.cu,10,38,37,3.01088e+09,262.066
GNaive1D.cu,10,39,38,3.51868e+09,285.128
GNaive1D.cu,10,40,39,4.09594e+09,320.287
GNaive1D.cu,10,41,40,4.75004e+09,363.404
GNaive1D.cu,10,42,41,5.48896e+09,392.246
GNaive1D.cu,10,43,42,6.32128e+09,447.142
GNaive1D.cu,10,44,43,7.25623e+09,510.022
GNaive1D.cu,10,45,44,8.30367e+09,549.666
GNaive1D.cu,10,46,45,9.4742e+09,651.549
GNaive1D.cu,10,47,46,1.07791e+10,710.845
GNaive1D.cu,10,48,47,1.22305e+10,766.694
GNaive1D.cu,10,49,48,1.38412e+10,839.295
GNaive1D.cu,10,50,49,1.56249e+10,917.079
GNaive1D.cu,10,51,50,1.75962e+10,1009.88
GNaive1D.cu,10,52,51,1.97705e+10,1105.9
GNaive1D.cu,10,53,52,2.21642e+10,1192.54
GNaive1D.cu,10,54,53,2.47948e+10,1312.48
GNaive1D.cu,10,55,54,2.76805e+10,1450.98
GNaive1D.cu,10,56,55,3.08408e+10,1613.3
GNaive1D.cu,10,57,56,3.42963e+10,1757.24
GNaive1D.cu,10,58,57,3.80685e+10,1885.37
GNaive1D.cu,10,59,58,4.21803e+10,2038.99
GNaive1D.cu,10,60,59,4.66558e+10,2216.74
GNaive1D.cu,10,61,60,5.15201e+10,2404.37
GNaive1D.cu,10,62,61,5.68e+10,2621.61
GNaive1D.cu,10,63,62,6.25233e+10,2838.68
GNaive1D.cu,10,64,63,6.87192e+10,3016.14
GNaive-MultiG.cu,8,2,1,56,0.38554
GNaive-MultiG.cu,8,3,2,702,0.36568
GNaive-MultiG.cu,8,4,3,4032,0.473887
GNaive-MultiG.cu,8,5,4,15500,0.469824
GNaive-MultiG.cu,8,6,5,46440,0.68124
GNaive-MultiG.cu,8,7,6,117306,0.880155
GNaive-MultiG.cu,8,8,7,261632,1.15533
GNaive-MultiG.cu,8,9,8,530712,1.43726
GNaive-MultiG.cu,8,10,9,999000,1.94305
GNaive-MultiG.cu,8,11,10,1.77023e+06,2.4107
GNaive-MultiG.cu,8,12,11,2.98426e+06,3.00757
GNaive-MultiG.cu,8,13,12,4.82461e+06,3.69507
GNaive-MultiG.cu,8,14,13,7.52679e+06,4.43241
GNaive-MultiG.cu,8,15,14,1.13872e+07,5.55329
GNaive-MultiG.cu,8,16,15,1.67731e+07,6.62517
GNaive-MultiG.cu,8,17,16,2.41327e+07,7.84559
GNaive-MultiG.cu,8,18,17,3.40064e+07,9.28875
GNaive-MultiG.cu,8,19,18,4.7039e+07,10.8729
GNaive-MultiG.cu,8,20,19,6.3992e+07,12.6735
GNaive-MultiG.cu,8,21,20,8.57569e+07,15.2271
GNaive-MultiG.cu,8,22,21,1.13369e+08,18.7902
GNaive-MultiG.cu,8,23,22,1.48024e+08,22.6306
GNaive-MultiG.cu,8,24,23,1.91089e+08,25.7419
GNaive-MultiG.cu,8,25,24,2.44125e+08,30.0501
GNaive-MultiG.cu,8,26,25,3.08898e+08,33.7448
GNaive-MultiG.cu,8,27,26,3.87401e+08,38.1372
GNaive-MultiG.cu,8,28,27,4.81868e+08,42.6872
GNaive-MultiG.cu,8,29,28,5.94799e+08,47.7754
GNaive-MultiG.cu,8,30,29,7.28973e+08,52.9932
GNaive-MultiG.cu,8,31,30,8.87474e+08,58.0138
GNaive-MultiG.cu,8,32,31,1.07371e+09,62.7804
GNaive-MultiG.cu,8,33,32,1.29143e+09,72.1488
GNaive-MultiG.cu,8,34,33,1.54477e+09,78.3294
GNaive-MultiG.cu,8,35,34,1.83822e+09,84.7669
GNaive-MultiG.cu,8,36,35,2.17674e+09,92.3584
GNaive-MultiG.cu,8,37,36,2.56568e+09,100.386
GNaive-MultiG.cu,8,38,37,3.01088e+09,107.861
GNaive-MultiG.cu,8,39,38,3.51868e+09,117.601
GNaive-MultiG.cu,8,40,39,4.09594e+09,130.057
GNaive-MultiG.cu,8,41,40,4.75004e+09,140.772
GNaive-MultiG.cu,8,42,41,5.48896e+09,150.521
GNaive-MultiG.cu,8,43,42,6.32128e+09,161.246
GNaive-MultiG.cu,8,44,43,7.25623e+09,171.628
GNaive-MultiG.cu,8,45,44,8.30367e+09,197.887
GNaive-MultiG.cu,8,46,45,9.4742e+09,211.017
GNaive-MultiG.cu,8,47,46,1.07791e+10,225.204
GNaive-MultiG.cu,8,48,47,1.22305e+10,240.77
GNaive-MultiG.cu,8,49,48,1.38412e+10,257.958
GNaive-MultiG.cu,8,50,49,1.56249e+10,297.88
GNaive-MultiG.cu,8,51,50,1.75962e+10,316.565
GNaive-MultiG.cu,8,52,51,1.97705e+10,336.304
GNaive-MultiG.cu,8,53,52,2.21642e+10,360.58
GNaive-MultiG.cu,8,54,53,2.47948e+10,380.001
GNaive-MultiG.cu,8,55,54,2.76805e+10,443.116
GNaive-MultiG.cu,8,56,55,3.08408e+10,467.589
GNaive-MultiG.cu,8,57,56,3.42963e+10,502.397
GNaive-MultiG.cu,8,58,57,3.80685e+10,527.17
GNaive-MultiG.cu,8,59,58,4.21803e+10,554.553
GNaive-MultiG.cu,8,60,59,4.66558e+10,649.073
GNaive-MultiG.cu,8,61,60,5.15201e+10,695.026
GNaive-MultiG.cu,8,62,61,5.68e+10,729.637
GNaive-MultiG.cu,8,63,62,6.25233e+10,762.768
GNaive-MultiG.cu,8,64,63,6.87192e+10,794.723
